{
  "API_URL": "<serverAddress>/api/",
  "item_type": "",
  "item_name": "",
  "client_name": "",
  "massive_load": false,
  "collectiveProperty": false,
  "showAltTitles": true,
  "showDates": false,
  "image_tags": [
    {
      "tag": "",
      "dimensions": {
      "width": 0,
      "height": 0
      },
      "mandatory": false,
      "max": 1
    }
  ],
  "social_multimedia": ["youtube", "tweet"]
}
